{
  "project_info": {
    "project_number": "987681575888",
    "firebase_url": "https://sync-571dc-default-rtdb.asia-southeast1.firebasedatabase.app",
    "project_id": "sync-571dc",
    "storage_bucket": "sync-571dc.appspot.com"
  },
  "client": [
    {
      "client_info": {
        "mobilesdk_app_id": "1:987681575888:android:901b1d375d1fdd2c9e5fd5",
        "android_client_info": {
          "package_name": "com.example.controller"
        }
      },
      "oauth_client": [
        {
          "client_id": "987681575888-f2h52n2t9ohu7umn22mg7evmom89k66p.apps.googleusercontent.com",
          "client_type": 3
        }
      ],
      "api_key": [
        {
          "current_key": "AIzaSyACWa0JeXa1bIofrCmUXUn5WqP_r-K12PU"
        }
      ],
      "services": {
        "appinvite_service": {
          "other_platform_oauth_client": [
            {
              "client_id": "987681575888-f2h52n2t9ohu7umn22mg7evmom89k66p.apps.googleusercontent.com",
              "client_type": 3
            }
          ]
        }
      }
    }
  ],
  "configuration_version": "1"
}